{
  "document_name": "doc1.pdf",
  "total_pages": 5,
  "total_items": 78,
  "pages": [
    {
      "page_number": 1,
      "items": [
        {
          "Particulars": "ADMINISTRATIVE CHARGES",
          "Quantity": 1,
          "Price": 55.0,
          "NetAmt": 55.0
        },
        {
          "Particulars": "ADMISSION",
          "Quantity": 1,
          "Price": 220.0,
          "NetAmt": 220.0
        },
        {
          "Particulars": "BED CHARGES",
          "Quantity": 3,
          "Price": 1540.0,
          "NetAmt": 4620.0
        },
        {
          "Particulars": "DIETETICS DEPARTMENT",
          "Quantity": 1,
          "Price": 110.0,
          "NetAmt": 110.0
        },
        {
          "Particulars": "DOCTORS VISIT CHARGE",
          "Quantity": 3,
          "Price": 110.0,
          "NetAmt": 330.0
        },
        {
          "Particulars": "LABORATORY",
          "Quantity": 1,
          "Price": 1001.0,
          "NetAmt": 1001.0
        },
        {
          "Particulars": "Dengue Ns1ag-Igg-Igm Card Test",
          "Quantity": 1,
          "Price": 660.0,
          "NetAmt": 660.0
        },
        {
          "Particulars": "Combo",
          "Quantity": 2,
          "Price": 44.0,
          "NetAmt": 88.0
        },
        {
          "Particulars": "Leptospira - Igg",
          "Quantity": 1,
          "Price": 1485.0,
          "NetAmt": 1485.0
        },
        {
          "Particulars": "Leptospira - Igm",
          "Quantity": 1,
          "Price": 550.0,
          "NetAmt": 550.0
        },
        {
          "Particulars": "Lft",
          "Quantity": 1,
          "Price": 418.0,
          "NetAmt": 418.0
        },
        {
          "Particulars": "Renal Function TestUrea Creat Uric Acid",
          "Quantity": 1,
          "Price": 308.0,
          "NetAmt": 308.0
        },
        {
          "Particulars": "Scrub Typhus Elisa",
          "Quantity": 1,
          "Price": 1320.0,
          "NetAmt": 1320.0
        },
        {
          "Particulars": "Serum Electrolytes",
          "Quantity": 1,
          "Rate": 440.0,
          "Gross Amount": 440.0
        },
        {
          "Particulars": "Tsh",
          "Quantity": 1,
          "Rate": 176.0,
          "Gross Amount": 176.0
        },
        {
          "Particulars": "Crp",
          "Quantity": 1,
          "Rate": 385.0,
          "Gross Amount": 385.0
        },
        {
          "Particulars": "Grbs",
          "Quantity": 3,
          "Rate": 44.0,
          "Gross Amount": 132.0
        },
        {
          "Particulars": "Platelet Count",
          "Quantity": 1,
          "Rate": 110.0,
          "Gross Amount": 110.0
        },
        {
          "Particulars": "Sodium, Potassium",
          "Quantity": 1,
          "Rate": 264.0,
          "Gross Amount": 264.0
        },
        {
          "Particulars": "Total Wbc Count Tc",
          "Quantity": 1,
          "Rate": 77.0,
          "Gross Amount": 77.0
        }
      ]
    },
    {
      "page_number": 2,
      "items": [
        {
          "Particulars": "Std Ac Room-2-Dw8",
          "Quantity": 3,
          "Rate": 220.0,
          "Gross Amount": 660.0,
          "Discount": 0.0
        },
        {
          "Particulars": "PROCEDURE/SERVICE CHARGE",
          "Quantity": null,
          "Rate": null,
          "Gross Amount": 220.0,
          "Discount": 0.0
        },
        {
          "Particulars": "Ecg",
          "Quantity": 1,
          "Rate": 110.0,
          "Gross Amount": 110.0,
          "Discount": 0.0
        },
        {
          "Particulars": "8x10 Film",
          "Quantity": 1,
          "Rate": 66.0,
          "Gross Amount": 66.0,
          "Discount": 0.0
        },
        {
          "Particulars": "Xray Chest - Pa View",
          "Quantity": 1,
          "Rate": 165.0,
          "Gross Amount": 165.0,
          "Discount": 0.0
        },
        {
          "Particulars": "10 Ml Syringe",
          "Quantity": 5,
          "Rate": 31.5,
          "Gross Amount": 157.5,
          "Discount": 6.3
        },
        {
          "Particulars": "2 Ml Syringe Dis",
          "Quantity": 5,
          "Rate": 12.0,
          "Gross Amount": 60.0,
          "Discount": 2.4
        },
        {
          "Particulars": "2 Ml Syringe Dis",
          "Quantity": 4,
          "Rate": 12.0,
          "Gross Amount": 48.0,
          "Discount": 1.92
        },
        {
          "Particulars": "5 Ml Syringe Dis",
          "Quantity": 5,
          "Rate": 16.5,
          "Gross Amount": 82.5,
          "Discount": 3.3
        },
        {
          "Particulars": "Drip Set Dis Drip Set Dis",
          "Quantity": 1,
          "Rate": 201.0,
          "Gross Amount": 201.0,
          "Discount": 80.4
        },
        {
          "Particulars": "Needle 16*1 1/2",
          "Quantity": 5,
          "Rate": 5.32,
          "Gross Amount": 26.6,
          "Discount": 0.0
        },
        {
          "Particulars": "Needle 16*1 1/2",
          "Quantity": 4,
          "Rate": 5.32,
          "Gross Amount": 21.28,
          "Discount": 0.0
        },
        {
          "Particulars": "Needle 24* 1/2",
          "Quantity": 4,
          "Rate": 4.0,
          "Gross Amount": 16.0,
          "Discount": 0.64
        },
        {
          "Particulars": "Needle 26*1/2",
          "Quantity": 1,
          "Rate": 2.0,
          "Gross Amount": 2.0,
          "Discount": 0.11
        },
        {
          "Particulars": "Std Ac Room-2-Dw8",
          "Quantity": 3,
          "Rate": 220.0,
          "Gross Amount": 660.0
        },
        {
          "Particulars": "Vitcee Fort",
          "Quantity": 1,
          "Rate": 445.32,
          "Gross Amount": 445.32
        },
        {
          "Particulars": "10 Ml Syringe",
          "Quantity": 4,
          "Rate": 31.5,
          "Gross Amount": 126.0
        },
        {
          "Particulars": "2 Ml Syringe Dis",
          "Quantity": 4,
          "Rate": 12.0,
          "Gross Amount": 48.0
        },
        {
          "Particulars": "Drip Set Dis",
          "Quantity": 1,
          "Rate": 201.0,
          "Gross Amount": 201.0
        },
        {
          "Particulars": "Easy Fix",
          "Quantity": 1,
          "Rate": 56.0,
          "Gross Amount": 56.0
        },
        {
          "Particulars": "Iv Cannula 24g Dis",
          "Quantity": 1,
          "Rate": 191.25,
          "Gross Amount": 191.25
        },
        {
          "Particulars": "Needle 16*1 1/2",
          "Quantity": 4,
          "Rate": 5.32,
          "Gross Amount": 21.28
        },
        {
          "Particulars": "Abiflu 75 Cap",
          "Quantity": 6,
          "Rate": 46.73,
          "Gross Amount": 280.38
        },
        {
          "Particulars": "Bidel 100mg Inj Bidel 100mg Inj",
          "Quantity": 2,
          "Rate": 536.91,
          "Gross Amount": 1073.82
        },
        {
          "Particulars": "Espentral - 40",
          "Quantity": 2,
          "Rate": 135.0,
          "Gross Amount": 270.0
        }
      ]
    },
    {
      "page_number": 3,
      "items": [
        {
          "Particulars": "Fexolite M Tab",
          "Quantity": 6,
          "Price": 16.34,
          "NetAmt": 98.04
        },
        {
          "Particulars": "Livi 300mg Tab",
          "Quantity": 6,
          "Price": 32.0,
          "NetAmt": 192.0
        },
        {
          "Particulars": "Menis - Sb Inj",
          "Quantity": 3,
          "Price": 1031.25,
          "NetAmt": 3093.75
        },
        {
          "Particulars": "Meronorm 1gm Inj",
          "Quantity": 2,
          "Price": 665.62,
          "NetAmt": 1331.24
        },
        {
          "Particulars": "Normal Saline 100ml",
          "Quantity": 2,
          "Price": 45.22,
          "NetAmt": 90.44
        },
        {
          "Particulars": "Normal Saline 100ml",
          "Quantity": 4,
          "Price": 45.22,
          "NetAmt": 180.88
        },
        {
          "Particulars": "Normal Saline Ivf",
          "Quantity": 1,
          "Price": 94.55,
          "NetAmt": 94.55
        },
        {
          "Particulars": "Piximole 100 Ml",
          "Quantity": 3,
          "Price": 299.0,
          "NetAmt": 897.0
        },
        {
          "Particulars": "Polybion Inj",
          "Quantity": 1,
          "Price": 25.78,
          "NetAmt": 25.78
        },
        {
          "Particulars": "Ringer Lactate Ivf",
          "Quantity": 2,
          "Price": 69.39,
          "NetAmt": 138.78
        },
        {
          "Particulars": "Bidel 100mg Inj",
          "Quantity": 2,
          "Price": 536.91,
          "NetAmt": 1073.82
        },
        {
          "Particulars": "Espentral - 40",
          "Quantity": 2,
          "Price": 135.0,
          "NetAmt": 270.0
        },
        {
          "Particulars": "Normal Saline 100ml",
          "Quantity": 3,
          "Price": 45.22,
          "NetAmt": 135.66
        },
        {
          "Particulars": "Abiflu 75 Cap",
          "Quantity": 6,
          "Price": 46.73,
          "NetAmt": 280.38
        },
        {
          "Particulars": "Doxy 1 Tab",
          "Quantity": 14,
          "Price": 11.32,
          "NetAmt": 158.48
        },
        {
          "Particulars": "Emeset Inj 2 Ml",
          "Quantity": 2,
          "Price": 12.72,
          "NetAmt": 25.44
        },
        {
          "Particulars": "Farotic 200",
          "Quantity": 21,
          "Price": 112.5,
          "NetAmt": 2362.5
        },
        {
          "Particulars": "Fexolite M Tab",
          "Quantity": 7,
          "Price": 16.34,
          "NetAmt": 114.38
        },
        {
          "Particulars": "Piximole 100 Ml",
          "Quantity": 1,
          "Price": 299.0,
          "NetAmt": 299.0
        },
        {
          "Particulars": "Probotix Cap",
          "Quantity": 14,
          "Price": 16.91,
          "NetAmt": 236.74
        },
        {
          "Particulars": "Supralite Os Syp",
          "Quantity": 1,
          "Price": 309.0,
          "NetAmt": 309.0
        },
        {
          "Particulars": "Triavit Plus Cap",
          "Quantity": 7,
          "Price": 17.34,
          "NetAmt": 121.38
        },
        {
          "Particulars": "Voqozon",
          "Quantity": 14,
          "Price": 19.69,
          "NetAmt": 275.66
        }
      ]
    },
    {
      "page_number": 4,
      "items": []
    },
    {
      "page_number": 5,
      "items": [
        {
          "Particulars": "Administrative Charges",
          "Quantity": 1.0,
          "Price": 55.0,
          "NetAmt": 55.0
        },
        {
          "Particulars": "Admission",
          "Quantity": 1.0,
          "Price": 220.0,
          "NetAmt": 220.0
        },
        {
          "Particulars": "Bed Charges",
          "Quantity": 1.0,
          "Price": 4620.0,
          "NetAmt": 4620.0
        },
        {
          "Particulars": "Dietetics Department",
          "Quantity": 1.0,
          "Price": 110.0,
          "NetAmt": 110.0
        },
        {
          "Particulars": "Doctors Visit Charge",
          "Quantity": 1.0,
          "Price": 330.0,
          "NetAmt": 330.0
        },
        {
          "Particulars": "Laboratory",
          "Quantity": 1.0,
          "Price": 7733.0,
          "NetAmt": 7733.0
        },
        {
          "Particulars": "Medicine Charges",
          "Quantity": 1.0,
          "Price": 20217.4,
          "NetAmt": 20217.4
        },
        {
          "Particulars": "Nursing Charges",
          "Quantity": 1.0,
          "Price": 660.0,
          "NetAmt": 660.0
        },
        {
          "Particulars": "Procedure/Service Charge",
          "Quantity": 1.0,
          "Price": 220.0,
          "NetAmt": 220.0
        },
        {
          "Particulars": "Radiology",
          "Quantity": 1.0,
          "Price": 341.0,
          "NetAmt": 341.0
        }
      ]
    }
  ]
}