{
  "document_name": "doc2.pdf",
  "total_pages": 6,
  "total_items": 21,
  "pages": [
    {
      "page_number": 1,
      "items": [
        {
          "Particulars": "Admission Charges",
          "Quantity": 1.0,
          "Price": 2140.0,
          "NetAmt": 2140.0
        },
        {
          "Particulars": "Consultation OP",
          "Quantity": 1.0,
          "Price": 1050.0,
          "NetAmt": 1050.0
        },
        {
          "Particulars": "Cardiology",
          "Quantity": 1.0,
          "Price": 5100.0,
          "NetAmt": 5100.0
        },
        {
          "Particulars": "Procedures",
          "Quantity": 1.0,
          "Price": 4560.0,
          "NetAmt": 4560.0
        },
        {
          "Particulars": "PPNCO3-ANGIOGRAPHY WITH ANGIOPLASTY",
          "Quantity": 1.0,
          "Price": 183969.0,
          "NetAmt": 183969.0
        },
        {
          "Particulars": "Pharmacy Drugs Materials",
          "Quantity": 1.0,
          "Price": 20624.97,
          "NetAmt": 20624.97
        },
        {
          "Particulars": "CATHETERS TIGER 5 F 100CM RADIAL # RH*STIGIIOM- TERUMO",
          "Quantity": 1.0,
          "Price": 2709.0,
          "NetAmt": 2709.0
        },
        {
          "Particulars": "CORONARY GUIDING CATHETER POWER BACK UP 6F 1O0CM HYPERION HWgOpb35OP10000 ASAHI",
          "Quantity": 1.0,
          "Price": 6984.0,
          "NetAmt": 6984.0
        },
        {
          "Particulars": "EMERALD GUIDE WIRE ANGIO  035 X 150 CM J TIP 502521, CORDIS",
          "Quantity": 1.0,
          "Price": 1285.0,
          "NetAmt": 1285.0
        },
        {
          "Particulars": "GUIDE WIRE PTCA SION BLUE ES J-TIP 0.14 INCH X 190 CM, #AHWIARO17J,ASAHI INTEC",
          "Quantity": 1.0,
          "Price": 8438.0,
          "NetAmt": 8438.0
        },
        {
          "Particulars": "TRAVELLER NC BALLOON PTCA 4.0MM X 12MM 143CM 1013157 12, ABBOTT",
          "Quantity": 1,
          "Price": 18750.0,
          "NetAmt": 18750.0
        },
        {
          "Particulars": "STENT BIOMATRIX ALPHA 4.0 MM X 19 MM #BMX6-4019, BIOSENSORS",
          "Quantity": 1,
          "Price": 41145.33,
          "NetAmt": 41145.33
        },
        {
          "Particulars": "[DIET037] Veg Cheese 5 'wich",
          "Quantity": 1,
          "Price": 120.0,
          "NetAmt": 120.0
        },
        {
          "Particulars": "[DIET1083] Chapati 1  pcs",
          "Quantity": 5,
          "Price": 20.0,
          "NetAmt": 100.0
        }
      ]
    },
    {
      "page_number": 2,
      "items": [
        {
          "Particulars": "[DIET1291] DAL TADKEWALI",
          "Quantity": 1,
          "Price": 150.0,
          "NetAmt": 150.0
        },
        {
          "Particulars": "[DIET2074] Choice Of Bhindi Masala Kurkuri",
          "Quantity": 1,
          "Price": 150.0,
          "NetAmt": 150.0
        },
        {
          "Particulars": "[DIET2078] Egg Thali",
          "Quantity": 1,
          "Price": 190.0,
          "NetAmt": 190.0
        },
        {
          "Particulars": "[DIET3OO] Mineral Water 1 Lt.",
          "Quantity": 2,
          "Price": 20.0,
          "NetAmt": 40.0
        },
        {
          "Particulars": "[CGSTBED] CGST on Bed Charge 2 .5%",
          "Quantity": 1.0,
          "Price": 337.0,
          "NetAmt": 337.0
        },
        {
          "Particulars": "[SGSTBED] SGST on Bed Charge 2 .5%",
          "Quantity": 1.0,
          "Price": 337.0,
          "NetAmt": 337.0
        },
        {
          "Particulars": "MANIPAL HOSPITAL BANER-PUNE",
          "Quantity": 1.0,
          "Price": 150.0,
          "NetAmt": 150.0
        }
      ]
    },
    {
      "page_number": 3,
      "items": []
    },
    {
      "page_number": 4,
      "items": []
    },
    {
      "page_number": 5,
      "items": []
    },
    {
      "page_number": 6,
      "items": []
    }
  ]
}