{
  "document_name": "sample_ doc.pdf",
  "total_pages": 13,
  "total_items": 111,
  "pages": [
    {
      "page_number": 1,
      "items": [
        {
          "Particulars": "Admission and MRD Charges",
          "Quantity": 1,
          "Price": 1210.0,
          "NetAmt": 1210.0
        },
        {
          "Particulars": "BED CHARGES - DOUBLE, MVBSFD-236-2",
          "Quantity": 1,
          "Price": 4650.0,
          "NetAmt": 4650.0
        },
        {
          "Particulars": "Nursing Service Charges - Twin Sharing",
          "Quantity": 1,
          "Price": 2475.0,
          "NetAmt": 2475.0
        },
        {
          "Particulars": "DIETARY WARDS- INITIAL ASSESSMENT",
          "Quantity": 1,
          "Price": 1000.0,
          "NetAmt": 1000.0
        },
        {
          "Particulars": "UROLOGY - CONSULTATION IP Dr ANAND ARUMUGAM",
          "Quantity": 1,
          "Price": 1210.0,
          "NetAmt": 1210.0
        },
        {
          "Particulars": "UROLOGY - INITIAL ASSESSMENT",
          "Quantity": 1,
          "Price": 1815.0,
          "NetAmt": 1815.0
        },
        {
          "Particulars": "Post OT Monitoring Charges Minor",
          "Quantity": 1,
          "Price": 630.0,
          "NetAmt": 630.0
        },
        {
          "Particulars": "Administration",
          "Quantity": 1.0,
          "Price": 968.0,
          "NetAmt": 968.0
        }
      ]
    },
    {
      "page_number": 2,
      "items": [
        {
          "Particulars": "Resident Medical Doctor Fee",
          "Quantity": 1,
          "Price": 968.0,
          "NetAmt": 968.0
        },
        {
          "Particulars": "PATIENT WARMER",
          "Quantity": 0.2,
          "Price": 1740.0,
          "NetAmt": 348.0
        },
        {
          "Particulars": "FLEXIBLE CYSTOSCOPY",
          "Quantity": 1,
          "Price": 2118.0,
          "NetAmt": 2118.0
        },
        {
          "Particulars": "LAP TOWER",
          "Quantity": 1,
          "Price": 10890.0,
          "NetAmt": 10890.0
        },
        {
          "Particulars": "LASER MACHINE 100W-UROLOGY",
          "Quantity": 1,
          "Price": 6642.0,
          "NetAmt": 6642.0
        },
        {
          "Particulars": "PCNL INSTRUMENTS",
          "Quantity": 1,
          "Price": 756.0,
          "NetAmt": 756.0
        },
        {
          "Particulars": "Pre Anesthesia Evaluation",
          "Quantity": 1,
          "Price": 787.0,
          "NetAmt": 787.0
        },
        {
          "Particulars": "HIV--CHEMIS",
          "Quantity": 1,
          "Price": 990.0,
          "NetAmt": 990.0
        },
        {
          "Particulars": "Hepatitis B Surface Antigen HbsAg",
          "Quantity": 1,
          "Price": 1669.0,
          "NetAmt": 1669.0
        },
        {
          "Particulars": "Hepatitis C Virus Antibody HCV",
          "Quantity": 1,
          "Price": 1957.0,
          "NetAmt": 1957.0
        }
      ]
    },
    {
      "page_number": 3,
      "items": [
        {
          "Particulars": "Order Item",
          "Quantity": 1,
          "Price": 100.0,
          "NetAmt": 100.0
        },
        {
          "Particulars": "IV Cannulation-Adult IV Cannulation-Adult",
          "Quantity": 1,
          "Price": 290.0,
          "NetAmt": 290.0
        },
        {
          "Particulars": "Injection",
          "Quantity": 1,
          "Price": 100.0,
          "NetAmt": 100.0
        },
        {
          "Particulars": "Foleys Catheterization",
          "Quantity": 1,
          "Price": 1190.0,
          "NetAmt": 1190.0
        },
        {
          "Particulars": "Injection Injection",
          "Quantity": 1,
          "Price": 100.0,
          "NetAmt": 100.0
        },
        {
          "Particulars": "IV Infusion",
          "Quantity": 2,
          "Price": 605.0,
          "NetAmt": 1210.0
        },
        {
          "Particulars": "Order Item Order Item",
          "Quantity": 1,
          "Price": 290.0,
          "NetAmt": 290.0
        },
        {
          "Particulars": "Injection",
          "Quantity": 0.4,
          "Price": 100.0,
          "NetAmt": 40.0
        },
        {
          "Particulars": "Pre OP Preparation and Care Minor",
          "Quantity": 1,
          "Price": 380.0,
          "NetAmt": 380.0
        },
        {
          "Particulars": "Recovery Monitoring Minor",
          "Quantity": 1,
          "Price": 630.0,
          "NetAmt": 630.0
        }
      ]
    },
    {
      "page_number": 4,
      "items": [
        {
          "Particulars": "Foleys catheter removal",
          "Quantity": 1,
          "Price": 63.0,
          "NetAmt": 63.0
        },
        {
          "Particulars": "IV Infusion",
          "Quantity": 1,
          "Price": 605.0,
          "NetAmt": 605.0
        },
        {
          "Particulars": "THEATRE CHARGES",
          "Quantity": 1.0,
          "Price": 40596.73,
          "NetAmt": 40596.73
        },
        {
          "Particulars": "DJ STENTING OF URETER UNILATERAL URO# L1 Dr ANAND ARUMUGAM",
          "Quantity": 1,
          "Price": 11495.0,
          "NetAmt": 11495.0
        },
        {
          "Particulars": "LASER URS URO Dr ANAND ARUMUGAM",
          "Quantity": 1,
          "Price": 25410.0,
          "NetAmt": 25410.0
        },
        {
          "Particulars": "Anesthetist Fee Dr Shruti S Kalli",
          "Quantity": 1,
          "Price": 8893.0,
          "NetAmt": 8893.0
        },
        {
          "Particulars": "Anesthetist Fee Dr Shruti S Kalli",
          "Quantity": 1,
          "Price": 4023.25,
          "NetAmt": 4023.25
        },
        {
          "Particulars": "Surgical Support Fee",
          "Quantity": 1,
          "Price": 6353.0,
          "NetAmt": 6353.0
        },
        {
          "Particulars": "Surgical Support Fee",
          "Quantity": 1,
          "Price": 2874.0,
          "NetAmt": 2874.0
        },
        {
          "Particulars": "THEATRE CHARGES",
          "Quantity": 1,
          "Price": 40596.73,
          "NetAmt": 40596.73
        },
        {
          "Particulars": "CSSD Charges Dr ANAND ARUMUGAM",
          "Quantity": 1,
          "Price": 1107.0,
          "NetAmt": 1107.0
        },
        {
          "Particulars": "Documentation Processing Fee",
          "Quantity": 1,
          "Price": 1300.0,
          "NetAmt": 1300.0
        },
        {
          "Particulars": "KEPHAZON-S FORTE 1.5 GM/VIAL powder for injection",
          "Quantity": 1,
          "Price": 773.44,
          "NetAmt": 773.44
        }
      ]
    },
    {
      "page_number": 5,
      "items": [
        {
          "Particulars": "GLOVE EXAMINATION MEDIUM POWDER FREE NON-STERILE NITRILE BLUE AROSAFE   # AHC230008 , LATRILE GLOVES PVT LTD",
          "Quantity": 1,
          "Price": 284.0,
          "NetAmt": 284.0
        },
        {
          "Particulars": "CANNULA 22 G VENFLON PRO-SAFETY REF #393242, BD",
          "Quantity": 1.0,
          "Price": 523.5,
          "NetAmt": 523.5
        },
        {
          "Particulars": "DURAPORE 7.5 cm X 9.1 m [3 X 10 yd] Surgical Adhesive Tape Ref #1538- 3",
          "Quantity": 0.2,
          "Price": 2226.55,
          "NetAmt": 445.31
        },
        {
          "Particulars": "GLOVE EXAMINATION MEDIUM POWDER FREE NON-STERILE NITRILE BLUE AROSAFE   # AHC230008 , LATRILE GLOVES PVT LTD",
          "Quantity": 25,
          "Price": 23.44,
          "NetAmt": 586.0
        },
        {
          "Particulars": "SEVITRUE INHALATION 250 ML  SEVOFLURANE, ABBOTT",
          "Quantity": 0.3,
          "Price": 8323.87,
          "NetAmt": 2497.16
        },
        {
          "Particulars": "CANNULA 20 G VENFLON PRO-SAFETY REF #393244, BD",
          "Quantity": 1.0,
          "Price": 490.5,
          "NetAmt": 490.5
        },
        {
          "Particulars": "Order Item",
          "Quantity": 1,
          "Price": 2000.0,
          "NetAmt": 2000.0
        }
      ]
    },
    {
      "page_number": 6,
      "items": [
        {
          "Particulars": "AEQUIMOL 100 ML INFUSION AEQUITAS",
          "Quantity": 1,
          "Price": 776.19,
          "NetAmt": 776.19
        },
        {
          "Particulars": "ARTACIL 25 MG/2.5 ML AMPOULE SOLUTION FOR INJECTION, 10 MG/ML",
          "Quantity": 3,
          "Price": 45.3,
          "NetAmt": 135.9
        },
        {
          "Particulars": "AUTOFUSION SET  INFUSION SET WITH AUTOAIR STOP PROTEKT PRIMING FILTER &   BACK CHECK VALVE # 14289, POLY MEDICURE LTD",
          "Quantity": 1,
          "Price": 515.0,
          "NetAmt": 515.0
        },
        {
          "Particulars": "BETADINE 10% W/V TOPICAL SOLUTION 100 ML",
          "Quantity": 1,
          "Price": 103.95,
          "NetAmt": 103.95
        },
        {
          "Particulars": "DECMAX 8 MG/2 ML VIAL SOLUTION FOR INJ, 4MG/ML DEXAMETHASONE -GLS",
          "Quantity": 1,
          "Price": 10.0,
          "NetAmt": 10.0
        },
        {
          "Particulars": "FOLEY CATHETER 2-WAY 14 CH/FR, ROMSONS",
          "Quantity": 1,
          "Price": 192.5,
          "NetAmt": 192.5
        },
        {
          "Particulars": "FRESOFOL 1% W/V MCT/LCT AMPOULE EMULSION FOR INJECTION,  PROPOFOL 1 % W/V  10 MG/ML, 20ML INJ, FRESENIUS KABI LTD.",
          "Quantity": 2,
          "Price": 138.0,
          "NetAmt": 276.0
        },
        {
          "Particulars": "GLOVES 7.5 STERILE PF ENCORE LATEX MICRO DERMASHIELD # 5787004, ANSELL GLOVES DISPOSABLE 6.5STERILE POWDER FREE ENCORE MICROPTIC, ANSELL",
          "Quantity": 1,
          "Price": 117.0,
          "NetAmt": 117.0
        },
        {
          "Particulars": "GLOVES DISPOSABLE 7STERILE POWDER FREE ENCORE MICROPTIC, ANSELL",
          "Quantity": 1,
          "Price": 117.0,
          "NetAmt": 117.0
        }
      ]
    },
    {
      "page_number": 7,
      "items": [
        {
          "Particulars": "LASIX 4 ML INJECTION  FRUSEMIDE 10 MG, SANOFI",
          "Quantity": 1,
          "Price": 12.76,
          "NetAmt": 12.76
        },
        {
          "Particulars": "LOX 2% W/V JELLY 30 GM",
          "Quantity": 1,
          "Price": 34.58,
          "NetAmt": 34.58
        },
        {
          "Particulars": "MYO-PYROLATE 5 ML AMPOULE SOLUTION FOR INJECTION  GLYCOPYRROLATE 0.5 MG + NEOSTIGINE METHYLSULFATE 2.5 MG, NEON LABORATORIES LTD.",
          "Quantity": 1,
          "Price": 140.2,
          "NetAmt": 140.2
        },
        {
          "Particulars": "NEEDLE DISPOSABLE 18G X 1.1/2",
          "Quantity": 1,
          "Price": 6.5,
          "NetAmt": 6.5
        },
        {
          "Particulars": "NORMAL SALINE 0.9% W/V AQUA PULSE 500 ML, DENIS NORMAL SALINE 0.9% W/V AQUA PULSE 500 ML, DENIS",
          "Quantity": 1,
          "Price": 93.0,
          "NetAmt": 93.0
        },
        {
          "Particulars": "NS 0.9% W/V 3000 ML PVC BOTTLE SOLUTION FOR IRRIGATION, DENIS",
          "Quantity": 1,
          "Price": 702.15,
          "NetAmt": 702.15
        },
        {
          "Particulars": "MYO-PYROLATE 5 ML AMPOULE SOLUTION FOR INJECTION  GLYCOPYRROLATE 0.5 MG + NEOSTIGINE METHYLSULFATE 2.5 MG, NEON LABORATORIES LTD. PERISET 2ML INJECTION, IPCA",
          "Quantity": 1,
          "Price": 12.72,
          "NetAmt": 12.72
        },
        {
          "Particulars": "RINGER LACTATE 500ML FFS/PP IV FLUID AQUA PULSE,PP, DENIS",
          "Quantity": 2,
          "Price": 69.81,
          "NetAmt": 139.62
        }
      ]
    },
    {
      "page_number": 8,
      "items": [
        {
          "Particulars": "Syringe 10 ML with Needle 21 G DispoVan, HMD",
          "Quantity": 1,
          "Price": 13.3,
          "NetAmt": 13.3
        },
        {
          "Particulars": "Syringe 10 ML with Needle 21 G DispoVan, HMD",
          "Quantity": 5,
          "Price": 13.3,
          "NetAmt": 66.5
        },
        {
          "Particulars": "Syringe 2.5ML with Needle 0.55 X 25 MM/24 G X 1IN DispoVan Ref # 0202.",
          "Quantity": 2,
          "Price": 8.59,
          "NetAmt": 17.18
        },
        {
          "Particulars": "Syringe 5 ML Luer Lock Discardit-II with Needle 23 G X 1IN, BD",
          "Quantity": 2,
          "Price": 19.5,
          "NetAmt": 39
        },
        {
          "Particulars": "TUR Set, Romson",
          "Quantity": 1,
          "Price": 487,
          "NetAmt": 487
        },
        {
          "Particulars": "UroBag Romo-30 Urine Collection Bag, Romsons",
          "Quantity": 1,
          "Price": 379,
          "NetAmt": 379
        },
        {
          "Particulars": "Order Item",
          "Quantity": 1,
          "Price": 1000.0,
          "NetAmt": 1000.0
        },
        {
          "Particulars": "Order Item",
          "Quantity": 2,
          "Price": 200.0,
          "NetAmt": 400.0
        }
      ]
    },
    {
      "page_number": 9,
      "items": [
        {
          "Particulars": "GS-3173 KAD, ROMSONS GROUP PVT LTD",
          "Quantity": 1.0,
          "Price": 510.0,
          "NetAmt": 510.0
        },
        {
          "Particulars": "WATER FOR INJECTION STERILE 10 ML, NIRMA",
          "Quantity": 2,
          "Price": 3.25,
          "NetAmt": 6.5
        },
        {
          "Particulars": "AVAGARD SURGICAL HAND SCRUB CHG 4% W/V 500 ML REF # 9293  CHLORHEXIDINE GLUCONATE SOLUTION 20% V/V/ML, 3M INDIA LIMITED",
          "Quantity": 1.0,
          "Price": 1078.0,
          "NetAmt": 1078.0
        },
        {
          "Particulars": "BACTORUB PINK TOPICAL SOLUTION 500 ML  CHLORHEXIDINE GLUCONATE SOLUTION 2.5 % V/V + ETHYL ALCOHOL 70 % V/V, RAMAN & WEIL PVT LTD",
          "Quantity": 1.0,
          "Price": 921.0,
          "NetAmt": 921.0
        },
        {
          "Particulars": "ELASTIC ADHESIVE BANDAGE 10 CM WIDTH X LENGTH 4/6 MT DYNAPLATER, 3M",
          "Quantity": 1.0,
          "Price": 1668.5,
          "NetAmt": 1668.5
        },
        {
          "Particulars": "FENTANYL CITRATE 100 MCG/2 ML ampoule solution for injection VERFEN from Verve Healthcare 50 mcg/mL",
          "Quantity": 1.0,
          "Price": 44.75,
          "NetAmt": 44.75
        },
        {
          "Particulars": "GS-3173 KAD, ROMSONS GROUP PVT LTD",
          "Quantity": 1,
          "Price": 510.0,
          "NetAmt": 510.0
        },
        {
          "Particulars": "AVAGARD SURGICAL HAND SCRUB CHG 4% W/V 500 ML REF # 9293  CHLORHEXIDINE GLUCONATE SOLUTION 20% V/V/ML, 3M INDIA LIMITED",
          "Quantity": 1,
          "Price": 1078.0,
          "NetAmt": 1078.0
        },
        {
          "Particulars": "BACTORUB PINK TOPICAL SOLUTION 500 ML  CHLORHEXIDINE GLUCONATE SOLUTION 2.",
          "Quantity": 1.0,
          "Price": 815.0,
          "NetAmt": 815.0
        },
        {
          "Particulars": "OMNIPAQUE 350 MG IODINE/ML 100 ML SOLUTION FOR INJECTION  IOHEXOL, GE HEALTHCARE PVT. LTD.",
          "Quantity": 0.4,
          "Price": 1494.01,
          "NetAmt": 597.0
        },
        {
          "Particulars": "MICRO POLYSYTE DUO 15CM REF # 13341 WITH MICROCLAVE CLEAR INFUSION SETSMALL BORE, POLYMED MEDICAL DEVICES",
          "Quantity": 1,
          "Price": 570.0,
          "NetAmt": 570.0
        },
        {
          "Particulars": "KEPHAZON-S FORTE 1.5 GM/VIAL powder for injection",
          "Quantity": 1.0,
          "Price": 773.44,
          "NetAmt": 773.44
        }
      ]
    },
    {
      "page_number": 10,
      "items": [
        {
          "Particulars": "NS 0.9% W/V 500 ML AQUA PULSE SOLUTION FOR INFUSION  SODIUM CHLORIDE PB, ",
          "Quantity": 1,
          "Price": 93.0,
          "NetAmt": 93.0
        },
        {
          "Particulars": "PANTOCID 40 MG/VIAL LYOPHILIZED POWDER FOR INJECTION ",
          "Quantity": 1,
          "Price": 53.89,
          "NetAmt": 53.89
        },
        {
          "Particulars": "GLOVE EXAMINATION MEDIUM POWDER FREE NON-STERILE NITRILE BLUE AROSAFE   # AHC230008 , LATRILE GLOVES PVT LTD ",
          "Quantity": 10,
          "Price": 23.44,
          "NetAmt": 234.4
        },
        {
          "Particulars": "SYRINGE 10 ML WITH NEEDLE 21 G DISPOVAN, HMD ",
          "Quantity": 2,
          "Price": 13.31,
          "NetAmt": 26.62
        },
        {
          "Particulars": "SYRINGE 2.5ML WITH NEEDLE 0.55 X 25 MM/24 G X 1IN DISPOVAN REF # 0202. 52SC2, HMD ",
          "Quantity": 1,
          "Price": 8.59,
          "NetAmt": 8.59
        },
        {
          "Particulars": "Charged: 1",
          "Quantity": 1.0,
          "Price": 776.19,
          "NetAmt": 776.19
        },
        {
          "Particulars": "SYRINGE 5 ML LUER LOCK DISCARDIT-II WITH NEEDLE 23 G X 1IN, BD ",
          "Quantity": 1,
          "Price": 19.5,
          "NetAmt": 19.5
        },
        {
          "Particulars": "ALFUGRESS 10 MG TABLET 10'S EXTENDED RELEASE  ALFUZOSIN, LA RENON         HEALTHCARE PVT LTD ",
          "Quantity": 30,
          "Price": 14.13,
          "NetAmt": 423.9
        }
      ]
    },
    {
      "page_number": 11,
      "items": [
        {
          "Particulars": "MIRAGO 50 MG TAB 10S MIRABEGRON EXTENDED RELEASE TABLET, SUN PHARMA",
          "Quantity": 6,
          "Price": 38.34,
          "NetAmt": 230.04
        },
        {
          "Particulars": "PANTOCID 40 MG TABLET 15S, SUN PHARMA",
          "Quantity": 10,
          "Price": 13.0,
          "NetAmt": 130.0
        },
        {
          "Particulars": "TAXIM-O 200 MG TABLET",
          "Quantity": 14,
          "Price": 10.44,
          "NetAmt": 146.16
        },
        {
          "Particulars": "TEMFIX TR TABLET 10S  ACETAMINOPHEN 325 MG + TRAMADOL HYDROCHLORIDE 37.5   MG, AEQUITAS HEALTHCARE PVT LTD",
          "Quantity": 6,
          "Price": 14.4,
          "NetAmt": 86.4
        },
        {
          "Particulars": "SWAB GAUZE STERILE 7.5 CM X 7.5 CM 8 PLY 5 'S / PCH - SGSP001, BAPUJI",
          "Quantity": 5,
          "Price": 11.7,
          "NetAmt": 58.5
        },
        {
          "Particulars": "MASK LMA PROSEAL REUSABLE SIZE 3, # 150030, LMA/TELEFLEX",
          "Quantity": 0.0,
          "Price": 36475.0,
          "NetAmt": 729.5
        },
        {
          "Particulars": "SWAB GAUZE RTS 7.5CM X 7.5CM 8PLY 5'S / PCH - RGSP001, BAPUJI",
          "Quantity": 1,
          "Price": 1500.0,
          "NetAmt": 1500.0
        }
      ]
    },
    {
      "page_number": 12,
      "items": [
        {
          "Particulars": "ELECTRODE ECG DISPOSABLE ADULT # MSGLT-08G, MEDICO ELECTRODES",
          "Quantity": 3,
          "Price": 33.75,
          "NetAmt": 101.25
        },
        {
          "Particulars": "HME FILTER ADULT M SH-2095 ROMSON",
          "Quantity": 1,
          "Price": 473.0,
          "NetAmt": 473.0
        },
        {
          "Particulars": "OT TABLE SHEET 225 CM X 100 CM MATHA ASSOCIATES",
          "Quantity": 1,
          "Price": 562.0,
          "NetAmt": 562.0
        },
        {
          "Particulars": "SHOE COVER KNEE LEGNTH PLASTIC, MATHA ASSOCIATES",
          "Quantity": 1,
          "Price": 140.0,
          "NetAmt": 140.0
        },
        {
          "Particulars": "STENT URETERAL P FLUX BOTH END OPEN 6 FR X 26 CM, # BUSB00602601, BLUENEEM",
          "Quantity": 1,
          "Price": 741.0,
          "NetAmt": 741.0
        },
        {
          "Particulars": "SUCTION TUBE WITH CONNECTORS STANDARD TIP-YANKUR SUCTION SET VACCU LINE # GS-5129 S KAD, ROMSONS",
          "Quantity": 1,
          "Price": 739.0,
          "NetAmt": 739.0
        },
        {
          "Particulars": "TURP UROLOGY DRAPE KIT, MATHA ASSOCIATES",
          "Quantity": 1,
          "Price": 1875.0,
          "NetAmt": 1875.0
        },
        {
          "Particulars": "GUIDE WIRE TWISTER STRAIGHT TIP 0.032 INCH X 150CM, # BTWN032150ST, BLUENEEM",
          "Quantity": 0.4,
          "Price": 5500.0,
          "NetAmt": 2200.0
        },
        {
          "Particulars": "SHEATH FLEXOR URETERAL ACCESS MALE FUS 095035 - COOK",
          "Quantity": 0.4,
          "Price": 9775.0,
          "NetAmt": 3910.0
        },
        {
          "Particulars": "WIRE GUIDE RADIFOCUS STRAIGHT 0.035 X 150 # GS35153M - TERUMO",
          "Quantity": 0.4,
          "Price": 2447.0,
          "NetAmt": 978.0
        },
        {
          "Particulars": "CAN URINE FOR MALE, 1000ML",
          "Quantity": 1,
          "Price": 90.0,
          "NetAmt": 90.0
        }
      ]
    },
    {
      "page_number": 13,
      "items": []
    }
  ]
}